Analyzing RNA-seq data with DESeq2
…
The MA plot showing and MA plot with reduced noice (shrunken log2 fold-changes )

PCA plot

Heatmaps

Look at the p-values

Here we look at the

res %>%
  as_tibble()

## # A tibble: 28,525 x 6
##    baseMean log2FoldChange  lfcSE     stat pvalue  padj
##       <dbl>          <dbl>  <dbl>    <dbl>  <dbl> <dbl>
##  1     84.0      -0.286    0.242  -1.18    0.238  0.500
##  2    642.        0.259    0.133   1.94    0.0520 0.199
##  3    688.        0.00579  0.107   0.0540  0.957  0.983
##  4   2676.        0.000348 0.0854  0.00408 0.997  0.999
##  5    466.        0.282    0.131   2.15    0.0315 0.142
##  6   1127.        0.00771  0.108   0.0715  0.943  0.977
##  7   2573.        0.130    0.0995  1.31    0.192  0.442
##  8    110.       -0.0655   0.211  -0.310   0.756  0.892
##  9   5982.       -0.0563   0.0865 -0.650   0.516  0.747
## 10    439.       -0.143    0.131  -1.09    0.274  0.541
## # ... with 28,515 more rows
…
## use the right mart
mart <- biomaRt::useMart('ensembl', dataset = danio$dataset)

attributes <- listAttributes(mart = mart) %>% as_tibble()

## search for gene_name or symbol
ind_attrib <- str_detect(
  string = attributes$name,
  pattern = "(gene_name|symbol)"
)

attributes[ind_attrib,]

## # A tibble: 200 x 3
##    name                             description                       page      
##    <chr>                            <chr>                             <chr>     
##  1 external_gene_name               Gene name                         feature_p~
##  2 hgnc_symbol                      HGNC symbol                       feature_p~
##  3 uniprot_gn_symbol                UniProtKB Gene Name symbol        feature_p~
##  4 wikigene_name                    WikiGene name                     feature_p~
##  5 zfin_id_symbol                   ZFIN symbol                       feature_p~
##  6 external_gene_name               Gene name                         structure 
##  7 external_gene_name               Gene name                         homologs  
##  8 cabingdonii_homolog_associated_~ Abingdon island giant tortoise g~ homologs  
##  9 gagassizii_homolog_associated_g~ Agassiz's desert tortoise gene n~ homologs  
## 10 mspretus_homolog_associated_gen~ Algerian mouse gene name          homologs  
## # ... with 190 more rows
…
